…
head(metro)
##   from             to total
## 1 가능       가락시장   103
## 2 가능 가산디지털단지   593
## 3 가능           가양   102
## 4 가능         가재울     1
## 5 가능           가정     2
## 6 가능   가정중앙시장     5
# 데이터를 확인해보면, "total" 열의 값은 환승수, 이동거리, 이동시간과도 맞지않아서, 탑승인원으로 간주했다.
# 가능역에서 가양역으로 가는 것은 노량진에서 환승을 해야갈 수 있기 때문에 탑승인원수는 가능역에서 타고 노량진에서 갈아타 가양역에서 내린 인원수를 나타낸다고 간주한다.
metro %>% as_tbl_graph() %>% #metro 데이터의 고유벡터 중심성 계산
  mutate(cen=centrality_pagerank(weights=total)) %>% #정확한 계산을 위해 인원에 대해 가중치 부여하고 하나의 노드가 중심성이 높게 나올 때 미치는 영향력을 최소화
  as_tibble %>% #티블
  arrange(desc(cen)) # 내림차순으로 정렬
## # A tibble: 578 x 2
##    name           cen
##            
##  1 강남       0.0136 
##  2 고속터미널 0.0106 
##  3 잠실       0.0105 
##  4 홍대입구   0.0104 
##  5 서울역     0.00923
##  6 사당       0.00753
##  7 신림       0.00722
##  8 건대입구   0.00711
##  9 신도림     0.00701
## 10 선릉       0.00694
## # ... with 568 more rows
…
